…
*Persuasion*’s `gutenberg_id` is 105. We’ll use it to download it. We’ll
set our cache option to `"persistent"` so that we don’t have to
re-download it later.

``` r
options(gutenbergr_cache_type = "persistent")
persuasion <- gutenberg_download(105)
```

``` r
persuasion
```

    #> # A tibble: 8,357 × 2
    #>    gutenberg_id text            
    #>           <int> <chr>           
    #>  1          105 "Persuasion"    
    #>  2          105 ""              
    #>  3          105 ""              
    #>  4          105 "by Jane Austen"
    #>  5          105 ""              
    #>  6          105 "(1818)"        
    #>  7          105 ""              
    #>  8          105 ""              
    #>  9          105 ""              
    #> 10          105 ""              
    #> # ℹ 8,347 more rows
…
